1597030926
s:775:"HTTP/1.1 200 OK
Server: nginx
Date: Mon, 10 Aug 2020 01:42:06 GMT
Content-Type: application/json; charset=utf-8
Transfer-Encoding: chunked
Vary: Accept-Encoding
X-XSS-Protection: 1; mode=block;
X-Content-Type-Options: nosniff
X-Frame-Options: SAMEORIGIN
Referrer-Policy: strict-origin-when-cross-origin
X-Permitted-Cross-Domain-Policies: none
Expect-CT: enforce, max-age=604800
Feature-Policy: accelerometer 'self'; ambient-light-sensor 'self'; autoplay 'self'; camera 'self'; encrypted-media 'self'; fullscreen 'self'; geolocation 'self'; gyroscope 'self'; magnetometer 'self'; microphone 'self'; midi 'self'; payment 'self'; picture-in-picture *; speaker 'self'; sync-xhr *; usb 'self'; vr 'self';
X-Backend-Server: vm2730.jn-hebergement.com

{"services":[]}";