1596592447
s:2758:"HTTP/1.1 200 OK
Server: nginx
Date: Tue, 04 Aug 2020 23:54:09 GMT
Content-Type: application/json; charset=utf-8
Transfer-Encoding: chunked
Vary: Accept-Encoding
X-XSS-Protection: 1; mode=block;
X-Content-Type-Options: nosniff
X-Frame-Options: SAMEORIGIN
Referrer-Policy: strict-origin-when-cross-origin
X-Permitted-Cross-Domain-Policies: none
Expect-CT: enforce, max-age=604800
Feature-Policy: accelerometer 'self'; ambient-light-sensor 'self'; autoplay 'self'; camera 'self'; encrypted-media 'self'; fullscreen 'self'; geolocation 'self'; gyroscope 'self'; magnetometer 'self'; microphone 'self'; midi 'self'; payment 'self'; picture-in-picture *; speaker 'self'; sync-xhr *; usb 'self'; vr 'self';
X-Backend-Server: vm2731.jn-hebergement.com

{"modules":[{"id":"23868","name":"ps_languageselector","displayName":"Language selector block","categoryName":"Blocks, Tabs & Banners","description":"Go further international and display a language selector in the header of your store so that customers can shop in their own language","author":"PrestaShop","url":"https:\/\/addons.prestashop.com\/en\/blocks-tabs-banners\/23868-language-selector-block.html?utm_source=back-office&utm_medium=push-addons&utm_campaign=back-office-EN&utm_content=download","serviceUrl":"","img":"https:\/\/medias1.prestastore.com\/img\/pico\/23868.jpg","fullDescription":"Go further international and display a language selector in the header of your store so that customers can shop in their own language.","additionalDescription":"Use this native module to:\r\n<ul>\r\n\t<li><strong>Get international: <\/strong>facilitate cross-border sales by making it possible to choose the language in which customers want to shop.<\/li>\r\n<\/ul>\r\n","features":"Your customers can choose and pick their preferred shopping language. It will display the languages available to the visitors, you can either add them through the &lsquo;International&rsquo; section of the back office. Indeed, you can either manage it by adding a localization pack and in the &lsquo;Languages&rsquo; subsection.<br \/>\r\n<br \/>\r\nBy default, it appears in the header of your homepage but it can be attached to another hook and be displayed elsewhere in your front office.","customer_benefits":"","demo_video":"","version":"2.1.0","last_update":"2020-08-03 12:07:58","compatibility":{"from":"1.7.1.0","to":"1.7.7.0"},"price":{"EUR":0,"USD":0,"GBP":0},"badges":[{"label":"Made by PrestaShop","img":"https:\/\/medias2.prestastore.com\/themes\/prestastore\/img\/front\/sprites\/badges\/made-by-prestashop.png"}],"cover":{"small":"https:\/\/medias3.prestastore.com\/1271862-pprod\/language-selector-block.jpg","big":"https:\/\/medias3.prestastore.com\/1271862-pbig\/language-selector-block.jpg"}}]}";